<svg width="63" height="20" viewBox="0 0 63 20" fill="none" xmlns="http://www.w3.org/2000/svg">
<g clip-path="url(#clip0)">
<path fill-rule="evenodd" clip-rule="evenodd" d="M18.1468 8.63054C19.3841 8.70908 20.0601 8.6081 20.3006 8.73151C20.4152 8.79883 20.4267 9.00078 20.4267 9.31493C20.4381 10.9081 20.3579 14.0496 20.484 15.4632C21.1026 15.5979 22.8555 15.5866 23.4512 15.4408C23.7605 14.4647 23.3023 9.0681 23.646 8.76517C23.9095 8.56322 24.7229 8.68664 25.1124 8.68664C25.8571 8.69786 26.1435 9.05688 26.006 7.00371L25.9488 6.61103C24.3105 6.35298 20.6558 6.51005 18.8113 6.51005C18.1353 6.51005 18.0781 6.61103 18.0895 7.25054C18.0895 7.69932 18.0322 8.19298 18.1468 8.63054Z" fill="#FEFEFE"/>
<path fill-rule="evenodd" clip-rule="evenodd" d="M37.1534 15.5415C39.3187 15.5415 38.8604 12.8601 38.8719 10.3918C38.8719 8.75374 39.1125 8.89959 36.7295 8.89959C36.5233 8.89959 36.3629 8.93325 36.2139 8.97813C35.7099 11.4015 36.7982 13.4098 35.2974 13.1854C34.7704 12.3664 35.4234 9.37081 34.8621 9.01179C34.61 8.84349 32.9373 8.84349 32.6166 8.92203C31.9979 9.06788 32.227 10.403 32.227 10.964C32.227 16.0015 32.101 15.5415 37.1534 15.5415Z" fill="#FEFEFE"/>
<path fill-rule="evenodd" clip-rule="evenodd" d="M57.6153 17.9875C59.3911 17.9875 59.1162 18.2343 60.0556 16.0016L62.7135 9.86454C63.1603 8.83234 63.3207 8.89966 61.3158 8.89966C60.3191 8.89966 60.3649 9.61771 59.7806 10.9416L59.414 11.7494C59.4026 11.7606 59.3911 11.7831 59.3797 11.7943C58.6235 10.4255 58.8183 8.89966 57.6955 8.89966C55.3125 8.89966 55.1865 8.73137 55.6333 9.77478C55.8052 10.1675 55.9656 10.5826 56.1374 10.9977C56.504 11.8504 56.8019 12.6133 57.1571 13.466C58.0965 15.7211 58.1309 14.9694 57.1685 17.1348C56.9165 17.7182 56.7217 17.9875 57.6153 17.9875Z" fill="#FEFEFE"/>
<path fill-rule="evenodd" clip-rule="evenodd" d="M42.7558 13.5895C42.1601 14.0719 40.602 13.6343 40.327 13.6231C40.2927 13.6231 40.0864 13.567 39.9833 13.6904C39.8 14.0719 39.8344 14.8236 39.9833 15.2836C41.7018 15.9904 44.7951 15.9455 45.5283 14.5543C46.0553 13.5558 45.6429 12.4675 45.0701 11.9514C44.5889 11.5026 43.9702 11.2446 43.3745 10.9641C43.0079 10.7958 42.9391 10.8182 42.985 10.4704C43.4661 10.1787 44.4629 10.4929 45.0701 10.4704C45.7918 8.87726 45.494 8.70897 43.7984 8.66409C39.2845 8.5519 39.0668 11.6597 41.656 12.8265C42.0684 13.0173 42.7444 13.107 42.7558 13.5895Z" fill="#FEFEFE"/>
<path fill-rule="evenodd" clip-rule="evenodd" d="M47.2354 8.88863C46.7886 8.94472 46.674 8.82131 46.3876 9.05692C46.2158 9.42716 46.2501 10.1564 46.3762 10.5828C46.674 10.7398 46.7199 10.695 47.0979 10.7062C47.1094 11.7272 46.9146 14.1169 47.35 14.835C48.0603 15.9906 50.1568 15.8111 50.7984 15.4184C50.8672 14.8462 50.7411 14.274 50.6037 13.7691C50.2829 13.7242 50.0996 13.7018 49.9048 13.5559L49.8819 10.7398C50.26 10.7174 50.6266 10.7959 50.8672 10.6389C51.1307 10.2686 51.0505 9.23643 50.7297 8.95594L49.8017 8.89985C49.7902 8.67546 49.8131 7.62082 49.7788 7.50863C49.6413 7.12717 49.4122 7.28424 48.5987 7.41887C47.2698 7.63204 47.2125 7.48619 47.2354 8.88863Z" fill="#FEFEFE"/>
<path fill-rule="evenodd" clip-rule="evenodd" d="M52.563 15.5304C55.1865 15.5304 54.7397 15.9343 54.7397 13.3538V7.83383C54.7397 6.27432 54.9918 6.3753 53.3993 6.3753C51.635 6.3753 51.9787 5.76944 51.9787 10.4704C51.9787 11.4016 51.9787 12.3441 51.9787 13.2753C51.9787 13.7465 51.9787 14.2065 51.9787 14.6777C51.9672 15.3172 51.8527 15.5304 52.563 15.5304Z" fill="#FEFEFE"/>
<path fill-rule="evenodd" clip-rule="evenodd" d="M26.6021 15.4292C27.0833 15.5639 28.5727 15.6536 29.008 15.4517C29.3975 15.0814 29.2028 12.8936 29.2028 12.198C29.2028 10.3132 30.6807 11.1434 31.3452 10.7058C31.4139 10.5039 31.4368 9.39315 31.391 9.15755C31.3337 8.82096 31.2306 8.87706 30.8411 8.87706C26.0866 8.83218 26.4532 8.88828 26.4532 12.198C26.4532 13.0507 26.2928 14.8346 26.6021 15.4292Z" fill="#FEFEFE"/>
<path fill-rule="evenodd" clip-rule="evenodd" d="M11.4562 15.9909C12.4759 15.9909 13.3122 16.7987 13.3122 17.8085C13.3122 18.807 12.4759 19.6148 11.4562 19.6148C10.4366 19.6148 9.60026 18.807 9.60026 17.8085C9.60026 16.7987 10.4366 15.9909 11.4562 15.9909ZM13.0029 6.5553V5.26505C13.0029 2.70701 10.8605 0.620178 8.25984 0.620178C5.64773 0.620178 3.51679 2.70701 3.51679 5.26505V6.5553H1.40877C0.652637 6.5553 -0.149327 7.18359 0.0225222 7.90164L1.48897 14.1958C1.66082 14.9138 2.11909 15.5309 2.88668 15.5309H13.507C14.2746 15.5309 14.7328 14.9138 14.9047 14.1958L16.3711 7.90164C16.543 7.18359 15.741 6.5553 14.9734 6.5553H13.0029ZM11.3646 6.5553H5.15509V5.16408C5.15509 3.49237 6.5528 2.11237 8.25984 2.11237C9.96688 2.11237 11.3646 3.49237 11.3646 5.16408V6.5553ZM5.02907 15.9909C6.06017 15.9909 6.88504 16.7987 6.88504 17.8085C6.88504 18.807 6.06017 19.6148 5.02907 19.6148C4.00943 19.6148 3.18455 18.807 3.18455 17.8085C3.18455 16.7987 4.00943 15.9909 5.02907 15.9909ZM7.43496 13.2758H9.0618V9.67432H10.3679V8.40652H6.11745V9.67432H7.43496V13.2758Z" fill="#FEFEFE"/>
</g>
<defs>
<clipPath id="clip0">
<rect width="63" height="19" fill="white" transform="translate(0 0.617188)"/>
</clipPath>
</defs>
</svg>
