<svg width="35" height="53" viewBox="0 0 35 53" fill="none" xmlns="http://www.w3.org/2000/svg">
<path fill-rule="evenodd" clip-rule="evenodd" d="M0 10.8022V52.0975C0 52.3199 0.185427 52.5 0.414058 52.5H9.36065C9.58949 52.5 9.7747 52.3199 9.7747 52.0975V31.9366C9.7747 31.5909 10.1939 31.4063 10.4614 31.6337L34.3133 51.9159C34.581 52.1437 35 51.9589 35 51.613V0.403108C35 0.0528742 34.5715 -0.130127 34.306 0.10682L16.0974 16.3518C15.9188 16.5112 15.9186 16.7844 16.0966 16.9442L21.9893 22.2261C22.1444 22.3649 22.3817 22.3685 22.541 22.2346L24.8555 20.288C25.1238 20.0625 25.5407 20.2476 25.5407 20.5924V31.9692L0.689201 10.5014C0.42212 10.2707 0 10.4551 0 10.8022Z" fill="#FF001E"/>
<mask id="mask0" mask-type="alpha" maskUnits="userSpaceOnUse" x="0" y="0" width="35" height="53">
<path d="M34.306 0.106647L16.0974 16.3518C15.9188 16.5112 15.9186 16.7845 16.0966 16.9442L21.9893 22.2262C22.1441 22.365 22.3819 22.3685 22.541 22.2347L24.8555 20.288C25.1238 20.0625 25.5407 20.2478 25.5407 20.5924V31.9692L0.689201 10.5016C0.42212 10.2707 0 10.4551 0 10.8023V52.0977C0 52.3199 0.185427 52.5 0.414058 52.5H9.36065C9.58949 52.5 9.7747 52.3199 9.7747 52.0977V31.9368C9.7747 31.591 10.1939 31.4063 10.4614 31.6337L34.3133 51.9161C34.581 52.1437 35 51.9591 35 51.6132V0.40335C35 0.16495 34.8015 0.0039422 34.5911 0C34.4815 0.00186736 34.3862 0.0350649 34.306 0.106647Z" fill="white"/>
</mask>
<g mask="url(#mask0)">
<path fill-rule="evenodd" clip-rule="evenodd" d="M25.5392 23.4467V38.3843L13.8726 21.5447L25.5392 23.4467Z" fill="#BB1B2E"/>
</g>
</svg>
